Journal 1
…
  # flatten into a tidy format: one row per publication-author
  if (length(pubs) > 0) {
    df_tmp <- tibble(
      main_author = author,
      publication = rep(seq_along(pubs), times = sapply(pubs, length)),
      co_author = unlist(pubs)
    )
    df_colabs <- bind_rows(df_colabs, df_tmp)
  }
}

df_colabs

## # A tibble: 104 × 3
##    main_author     publication co_author          
##    <chr>                 <int> <chr>              
##  1 Agnieszka Kanas           1 A. Kanas           
##  2 Agnieszka Kanas           1 F. van Tubergen    
##  3 Agnieszka Kanas           2 Agnieszka Kanas    
##  4 Agnieszka Kanas           2 Barry R. Chiswick  
##  5 Agnieszka Kanas           2 Tanja van der Lippe
##  6 Agnieszka Kanas           2 Frank van Tubergen 
##  7 Agnieszka Kanas           3 Agnieszka Kanas    
##  8 Agnieszka Kanas           3 Frank van Tubergen 
##  9 Agnieszka Kanas           3 Tanja van der Lippe
## 10 Agnieszka Kanas           4 Agnieszka Kanas    
## # ℹ 94 more rows
…
